<svg width="48" height="15" viewBox="0 0 48 15" fill="none" xmlns="http://www.w3.org/2000/svg">
<g clip-path="url(#clip0)">
<path d="M4.98046 5.437V5.03491C4.98046 4.89587 4.88212 4.78322 4.76074 4.78322C4.63936 4.78322 4.54101 4.89587 4.54101 5.03491V5.437C4.54101 5.57603 4.63936 5.68869 4.76074 5.68869C4.88212 5.68869 4.98046 5.57603 4.98046 5.437Z" fill="white"/>
<path d="M4.08639 6.76037C3.77675 6.85457 3.19248 7.19072 2.96569 7.38254C2.86804 7.46513 2.84733 7.62268 2.9194 7.7345C2.9625 7.80135 3.02897 7.83675 3.09636 7.83675C3.14171 7.83675 3.18741 7.82071 3.22667 7.78752C3.41347 7.62956 3.94796 7.32328 4.19918 7.2469C4.31645 7.21123 4.3863 7.0734 4.35515 6.93903C4.32401 6.8047 4.20369 6.72473 4.08639 6.76037Z" fill="white"/>
<path d="M10.6613 7.6897C10.0721 7.6897 9.59282 8.23874 9.59282 8.9136C9.59282 9.58845 10.0721 10.1375 10.6613 10.1375C11.2505 10.1375 11.7298 9.58845 11.7298 8.9136C11.7298 8.23878 11.2505 7.6897 10.6613 7.6897ZM10.6613 9.63416C10.3144 9.63416 10.0322 9.31093 10.0322 8.9136C10.0322 8.51627 10.3144 8.19304 10.6613 8.19304C11.0082 8.19304 11.2904 8.51627 11.2904 8.9136C11.2904 9.31093 11.0082 9.63416 10.6613 9.63416Z" fill="white"/>
<path d="M9.20988 5.437V5.03491C9.20988 4.89587 9.11153 4.78322 8.99016 4.78322C8.86878 4.78322 8.77043 4.89587 8.77043 5.03491V5.437C8.77043 5.57603 8.86878 5.68869 8.99016 5.68869C9.11153 5.68869 9.20988 5.57603 9.20988 5.437Z" fill="white"/>
<path d="M14.2252 5.88645H12.1918C12.1624 5.35257 12.053 4.83329 11.8695 4.34112C12.4736 3.3072 12.6399 2.03695 12.324 0.832174C12.2241 0.451356 11.9368 0.175205 11.592 0.12866C10.5442 -0.012822 9.51263 0.362527 8.73916 1.16037C8.03762 0.87335 7.27596 0.722271 6.49069 0.722271C5.70503 0.722271 4.94343 0.873283 4.24206 1.16024C3.46863 0.362493 2.43732 -0.0127213 1.38937 0.12866C1.04457 0.175205 0.757289 0.451356 0.657416 0.832208C0.341566 2.03661 0.507679 3.30649 1.1114 4.34029C0.894134 4.92266 0.780843 5.54291 0.780843 6.18028C0.780843 7.43254 1.21318 8.4512 2.06575 9.20788C2.10579 9.24341 2.15314 9.26063 2.20019 9.26059C2.26578 9.26059 2.33074 9.22707 2.37404 9.16307C2.44836 9.05321 2.43084 8.89511 2.33493 8.80997C1.5953 8.15358 1.22027 7.26885 1.22027 6.18032C1.22027 3.44834 3.58455 1.22568 6.49069 1.22568C7.26304 1.22568 8.0099 1.38139 8.69144 1.67643C8.70465 1.68395 8.71833 1.68982 8.73237 1.69408C9.16508 1.8857 9.57078 2.13393 9.9391 2.43471C9.94077 2.43609 9.94241 2.43757 9.94411 2.43888C10.038 2.51576 10.1296 2.59589 10.2184 2.67952C10.7476 3.17766 11.1504 3.76369 11.4114 4.40217C11.4151 4.41351 11.4196 4.42448 11.4246 4.43519C11.6092 4.89641 11.7202 5.38452 11.7514 5.88645H7.29439C7.40894 5.82259 7.51271 5.73285 7.59843 5.6202C7.67818 5.51539 7.6686 5.35643 7.57713 5.26508C7.48558 5.17374 7.3468 5.18468 7.26711 5.28948C7.16818 5.41952 7.02532 5.49412 6.87521 5.49412C6.72509 5.49412 6.58227 5.41952 6.48333 5.28948C6.40356 5.18471 6.26478 5.17381 6.17331 5.26508C6.08185 5.35643 6.0723 5.51539 6.15201 5.6202C6.30462 5.82077 6.51409 5.9494 6.74071 5.98622C6.49244 6.13418 6.32241 6.4315 6.32241 6.77363V9.46211C5.97978 9.23412 5.5896 9.1123 5.17312 9.10713C4.64317 9.10109 4.10639 9.291 3.68636 9.6041C3.5104 9.53688 3.34104 9.46251 3.18257 9.38147C3.07177 9.32483 2.94184 9.38177 2.89239 9.50872C2.84293 9.63564 2.89265 9.78447 3.00348 9.84112C3.09653 9.8887 3.19309 9.93397 3.29191 9.97723C3.19731 10.092 3.11627 10.2151 3.05249 10.345C2.93217 10.5901 2.90232 10.8741 2.9685 11.1449C2.98816 11.2253 3.01573 11.3015 3.05015 11.3727C3.05642 11.5322 3.07233 11.6914 3.0977 11.8484C3.06527 11.9328 3.04693 12.0259 3.04693 12.1239V12.6947C3.04693 12.8308 3.08211 12.9575 3.142 13.0643C2.89148 13.2092 2.74992 13.1423 2.62675 13.0572C2.38496 12.89 2.30387 12.602 2.17652 11.9848C2.06024 11.4214 1.90848 10.6876 1.3833 10.1361C1.38084 10.1334 1.37829 10.1309 1.37572 10.1283C1.26163 10.0097 1.13041 9.89948 0.977982 9.80155C0.824876 9.70316 0.64766 9.67903 0.478734 9.7335C0.309925 9.78793 0.16971 9.91444 0.0839293 10.0897C-0.00185199 10.2649 -0.0229457 10.468 0.0245738 10.6614C0.072064 10.8548 0.182513 11.0155 0.335501 11.1137C0.410443 11.1619 0.472904 11.2152 0.526576 11.2771C0.533167 11.2861 0.54014 11.2946 0.547581 11.3023C0.713255 11.5097 0.791244 11.8122 0.898324 12.331C1.03655 13.0005 1.20852 13.8337 1.94788 14.345C2.24264 14.5488 2.55518 14.6522 2.87683 14.6522C3.26961 14.6522 3.66506 14.4962 4.05219 14.1886C4.11831 14.1361 4.18441 14.0785 4.25144 14.016C4.86808 14.5805 5.65866 14.9007 6.49072 14.9007H11.1986C11.7053 14.9007 12.1175 14.4286 12.1175 13.8482C12.1175 13.682 12.0838 13.5233 12.0225 13.3811H14.4005C14.7309 13.3811 14.9998 13.0732 14.9998 12.6947V6.77363C14.9997 6.28442 14.6523 5.88645 14.2252 5.88645ZM2.46846 2.30494C1.99927 2.74989 1.62122 3.2589 1.34267 3.81147C0.88139 2.87322 0.904388 1.95624 0.995794 1.37511C1.45532 1.49133 2.03466 1.72982 2.564 2.21652C2.53186 2.24565 2.49998 2.27508 2.46846 2.30494ZM2.93106 1.91124C2.32124 1.31424 1.64434 1.02658 1.11008 0.888687C1.17547 0.746702 1.29808 0.647839 1.44076 0.628543C2.28843 0.514344 3.12348 0.783817 3.78067 1.3731C3.48295 1.52676 3.19874 1.7066 2.93106 1.91124ZM0.704466 10.7896C0.657328 10.749 0.606322 10.7105 0.550423 10.6746C0.499857 10.6421 0.463294 10.589 0.447591 10.525C0.431859 10.461 0.438832 10.3938 0.46725 10.3358C0.495638 10.2778 0.542015 10.236 0.597826 10.2179C0.653607 10.2 0.712288 10.2079 0.763001 10.2405C0.836859 10.288 0.904271 10.339 0.966527 10.3929C0.889476 10.5703 0.791566 10.6998 0.704466 10.7896ZM10.0502 1.91131C9.78251 1.7067 9.49819 1.527 9.20041 1.37327C9.85766 0.783851 10.6928 0.514277 11.5405 0.628543C11.6833 0.647839 11.8059 0.746702 11.8713 0.888687C11.337 1.02658 10.66 1.31424 10.0502 1.91131ZM11.6386 3.81174C11.3569 3.2528 10.9734 2.73865 10.4975 2.29062C10.471 2.26565 10.4441 2.24118 10.4171 2.21679C10.9466 1.72992 11.526 1.49139 11.9856 1.37515C12.077 1.95631 12.1 2.87342 11.6386 3.81174ZM3.43552 10.5919C3.7117 10.0294 4.44445 9.61037 5.14693 9.61037C5.15408 9.61037 5.16128 9.6104 5.1684 9.61051C5.60094 9.61584 5.99777 9.7744 6.32243 10.0698V11.4374H6.07704C6.04798 11.4022 6.02264 11.3631 6.00237 11.3196C5.82119 10.9316 5.56107 10.7324 5.20728 10.7106C4.78546 10.6847 4.3923 10.9315 4.28129 11.1123C4.27725 11.1189 4.2735 11.1257 4.27004 11.1327C4.16958 11.335 3.9679 11.4432 3.76789 11.4017C3.7156 11.3909 3.66524 11.37 3.61825 11.3397C3.54919 11.2952 3.49215 11.2333 3.45043 11.1591C3.44947 11.1574 3.44862 11.1556 3.44762 11.154C3.42327 11.1096 3.40429 11.061 3.39163 11.0092C3.35712 10.8679 3.37271 10.7197 3.43552 10.5919ZM5.54996 11.4374H4.62143C4.62784 11.4262 4.63461 11.4153 4.64068 11.4038C4.69016 11.3521 4.91993 11.1966 5.18358 11.2132C5.34342 11.2231 5.45566 11.29 5.54996 11.4374ZM3.80173 13.7749C3.48954 14.023 3.17835 14.1488 2.8768 14.1488C2.63633 14.1488 2.4002 14.0698 2.17499 13.914C1.59366 13.512 1.45757 12.8527 1.32597 12.215C1.24447 11.8201 1.16958 11.4583 1.00268 11.1592C1.09666 11.0614 1.19906 10.9309 1.28935 10.763C1.55627 11.169 1.65682 11.6547 1.74881 12.1005C1.8699 12.6872 1.97446 13.194 2.39958 13.488C2.62839 13.6461 2.99598 13.8055 3.54755 13.3709C3.57972 13.3771 3.6125 13.381 3.64616 13.381H3.70321C3.7722 13.4826 3.84571 13.5795 3.92305 13.672C3.8823 13.7084 3.8419 13.743 3.80173 13.7749ZM3.64616 12.8777C3.55801 12.8777 3.48632 12.7956 3.48632 12.6946V12.1239C3.48632 12.0877 3.49567 12.054 3.51158 12.0256C3.51234 12.0243 3.51298 12.0229 3.51371 12.0215C3.54248 11.9728 3.59112 11.9408 3.64616 11.9408H6.32241V12.8777H3.64616ZM8.87961 14.3973H6.49069C5.70181 14.3973 4.9567 14.0714 4.40182 13.5031C4.39989 13.5009 4.39792 13.4989 4.39593 13.4969C4.35946 13.4593 4.32377 13.4207 4.289 13.3811H9.13139C9.27278 13.4808 9.35905 13.6552 9.35905 13.8481C9.35905 14.1509 9.14396 14.3973 8.87961 14.3973ZM11.1986 14.3973H9.66316C9.74894 14.2373 9.79851 14.0493 9.79851 13.8481C9.79851 13.682 9.76476 13.5232 9.70353 13.3811H11.4504C11.5918 13.4808 11.678 13.6552 11.678 13.8481C11.678 14.1509 11.463 14.3973 11.1986 14.3973ZM14.5603 11.4374H13.9841C13.8627 11.4374 13.7644 11.5501 13.7644 11.6891C13.7644 11.8281 13.8627 11.9408 13.9841 11.9408H14.5603V12.6946C14.5603 12.7956 14.4886 12.8777 14.4004 12.8777H6.76189V11.9408H12.9622C13.0836 11.9408 13.1819 11.8281 13.1819 11.6891C13.1819 11.5501 13.0836 11.4374 12.9622 11.4374H6.76189V6.77363C6.76189 6.56198 6.91221 6.38979 7.09698 6.38979H14.2252C14.41 6.38979 14.5603 6.56198 14.5603 6.77363V11.4374H14.5603Z" fill="white"/>
<path d="M3.9697 5.90558C3.65215 5.85749 3.00015 5.91333 2.72657 5.99165C2.60883 6.02538 2.53729 6.16203 2.5667 6.2969C2.59169 6.41123 2.68125 6.48761 2.77972 6.48761C2.79738 6.48761 2.81531 6.48516 2.83318 6.48003C3.05845 6.41549 3.65443 6.36563 3.91213 6.40462C4.03204 6.42278 4.14284 6.32593 4.15875 6.18807C4.17466 6.05028 4.09002 5.9238 3.9697 5.90558Z" fill="white"/>
</g>
<path d="M18.72 11V5.752H20.28C20.5467 5.752 20.7893 5.776 21.008 5.824C21.232 5.872 21.4213 5.94667 21.576 6.048C21.736 6.14933 21.8587 6.28267 21.944 6.448C22.0347 6.608 22.08 6.80267 22.08 7.032C22.08 7.29333 22.0133 7.53067 21.88 7.744C21.752 7.952 21.5627 8.096 21.312 8.176V8.208C21.632 8.26667 21.8907 8.4 22.088 8.608C22.2853 8.816 22.384 9.10133 22.384 9.464C22.384 9.72 22.336 9.944 22.24 10.136C22.144 10.328 22.008 10.488 21.832 10.616C21.656 10.744 21.4453 10.84 21.2 10.904C20.9547 10.968 20.6853 11 20.392 11H18.72ZM19.384 7.984H20.16C20.608 7.984 20.9307 7.90667 21.128 7.752C21.3253 7.59733 21.424 7.38667 21.424 7.12C21.424 6.816 21.32 6.6 21.112 6.472C20.9093 6.344 20.6027 6.28 20.192 6.28H19.384V7.984ZM19.384 10.472H20.296C20.7493 10.472 21.1013 10.3893 21.352 10.224C21.6027 10.0533 21.728 9.792 21.728 9.44C21.728 9.11467 21.6053 8.87733 21.36 8.728C21.1147 8.57333 20.76 8.496 20.296 8.496H19.384V10.472ZM24.4951 11.096C24.0791 11.096 23.7751 10.968 23.5831 10.712C23.3965 10.456 23.3031 10.0773 23.3031 9.576V7.112H23.9671V9.488C23.9671 9.856 24.0231 10.1227 24.1351 10.288C24.2525 10.448 24.4391 10.528 24.6951 10.528C24.8978 10.528 25.0765 10.4773 25.2311 10.376C25.3858 10.2693 25.5565 10.1013 25.7431 9.872V7.112H26.3991V11H25.8551L25.7991 10.392H25.7751C25.5938 10.6053 25.4018 10.776 25.1991 10.904C25.0018 11.032 24.7671 11.096 24.4951 11.096ZM28.4067 11.096C28.156 11.096 27.9774 11.0213 27.8707 10.872C27.764 10.7227 27.7107 10.504 27.7107 10.216V5.304H28.3667V10.264C28.3667 10.3707 28.3854 10.4453 28.4227 10.488C28.46 10.5307 28.5027 10.552 28.5507 10.552C28.572 10.552 28.5907 10.552 28.6067 10.552C28.628 10.552 28.6574 10.5467 28.6947 10.536L28.7827 11.032C28.74 11.0533 28.6894 11.0693 28.6307 11.08C28.572 11.0907 28.4974 11.096 28.4067 11.096ZM29.7498 11V5.304H30.3978V9.16H30.4218L32.0778 7.112H32.8058L31.5018 8.672L32.9818 11H32.2618L31.1258 9.128L30.3978 9.976V11H29.7498ZM34.5286 11.096C34.2032 11.096 33.9312 11 33.7126 10.808C33.4992 10.616 33.3926 10.344 33.3926 9.992C33.3926 9.56533 33.5819 9.24 33.9606 9.016C34.3392 8.78667 34.9446 8.62667 35.7766 8.536C35.7766 8.41333 35.7632 8.29333 35.7366 8.176C35.7152 8.05867 35.6752 7.95467 35.6166 7.864C35.5579 7.77333 35.4752 7.70133 35.3686 7.648C35.2672 7.58933 35.1366 7.56 34.9766 7.56C34.7526 7.56 34.5419 7.60267 34.3446 7.688C34.1472 7.77333 33.9712 7.86933 33.8166 7.976L33.5606 7.52C33.7419 7.40267 33.9632 7.29067 34.2246 7.184C34.4859 7.072 34.7739 7.016 35.0886 7.016C35.5632 7.016 35.9072 7.16267 36.1206 7.456C36.3339 7.744 36.4406 8.13067 36.4406 8.616V11H35.8966L35.8406 10.536H35.8166C35.6299 10.6907 35.4299 10.824 35.2166 10.936C35.0032 11.0427 34.7739 11.096 34.5286 11.096ZM34.7206 10.568C34.9072 10.568 35.0832 10.5253 35.2486 10.44C35.4139 10.3493 35.5899 10.2187 35.7766 10.048V8.968C35.4512 9.01067 35.1766 9.06133 34.9526 9.12C34.7339 9.17867 34.5552 9.248 34.4166 9.328C34.2832 9.408 34.1846 9.50133 34.1206 9.608C34.0619 9.70933 34.0326 9.82133 34.0326 9.944C34.0326 10.168 34.0992 10.328 34.2326 10.424C34.3659 10.52 34.5286 10.568 34.7206 10.568ZM40.4174 11V6.312H38.8334V5.752H42.6734V6.312H41.0894V11H40.4174ZM44.5784 11L42.8984 5.752H43.6104L44.4504 8.584C44.5464 8.89867 44.6291 9.18933 44.6984 9.456C44.7731 9.72267 44.8611 10.0107 44.9624 10.32H44.9944C45.0904 10.0107 45.1758 9.72267 45.2504 9.456C45.3251 9.18933 45.4078 8.89867 45.4984 8.584L46.3384 5.752H47.0184L45.3544 11H44.5784Z" fill="white"/>
<defs>
<clipPath id="clip0">
<rect width="15" height="15" fill="white"/>
</clipPath>
</defs>
</svg>
